…
## Installation

Not yet on guthub, ask Mark for the package file

## Example

This is a basic example which shows you how to solve a common problem:

``` r
library(UKpopData)
get_pop_data()
#> # A tibble: 27 x 319
#>    Year  Total_Age_0 Total_Age_1 Total_Age_2 Total_Age_3 Total_Age_4 Total_Age_5
#>    <chr>       <dbl>       <dbl>       <dbl>       <dbl>       <dbl>       <dbl>
#>  1 2001       662662      679455      698903      710986      730156      724436
#>  2 2002       661786      664800      682505      702372      714737      734046
#>  3 2003       679910      662639      667850      685822      706437      718816
#>  4 2004       704450      679406      663651      670805      689289      710619
#>  5 2005       716331      704755      680794      665589      674460      691326
#>  6 2006       734035      716092      704383      681323      666792      676448
#>  7 2007       757429      737641      717749      705686      683009      668737
#>  8 2008       788225      758643      740782      718402      705931      683652
#>  9 2009       782726      787962      759942      743661      718630      706675
#> 10 2010       791801      781631      788659      761633      746833      719662
#> # ... with 17 more rows, and 312 more variables: Total_Age_6 <dbl>,
#> #   Total_Age_7 <dbl>, Total_Age_8 <dbl>, Total_Age_9 <dbl>,
#> #   Total_Age_10 <dbl>, Total_Age_11 <dbl>, Total_Age_12 <dbl>,
#> #   Total_Age_13 <dbl>, Total_Age_14 <dbl>, Total_Age_15 <dbl>,
#> #   Total_Age_16 <dbl>, Total_Age_17 <dbl>, Total_Age_18 <dbl>,
#> #   Total_Age_19 <dbl>, Total_Age_20 <dbl>, Total_Age_21 <dbl>,
#> #   Total_Age_22 <dbl>, Total_Age_23 <dbl>, Total_Age_24 <dbl>, ...
```
…
